<svg version="1.1" viewBox="0 0 96 96" xmlns="http://www.w3.org/2000/svg" xmlns:xlink="http://www.w3.org/1999/xlink" id="Icons_Marker" overflow="hidden"><style>
.MsftOfcThm_Text1_lumMod_75_lumOff_25_Fill {
 fill:#404040; 
}
</style>
<g><path d=" M 48 44 C 43 44 39 40 39 35 C 39 30 43 26 48 26 C 53 26 57 30 57 35 C 57 40 53 44 48 44 Z M 48 14 C 41.1 14 34.6 17.4 30.7 23.2 C 26.8 28.9 26 36.2 28.5 42.7 L 38 63.7 L 46.2 80.9 C 46.5 81.6 47.2 82 48 82 C 48.8 82 49.5 81.6 49.8 80.9 L 58 63.7 L 67.5 42.7 C 70 36.2 69.2 28.9 65.3 23.2 C 61.4 17.4 54.9 14 48 14 Z" stroke="none" stroke-width="1" stroke-dasharray="" stroke-dashoffset="1" fill="#404040" fill-opacity="1"/></g></svg>